%YAML 1.1
%TAG !u! tag:unity3d.com,2011:
--- !u!1 &6733622293782767173
GameObject:
  m_ObjectHideFlags: 0
  m_CorrespondingSourceObject: {fileID: 0}
  m_PrefabInstance: {fileID: 0}
  m_PrefabAsset: {fileID: 0}
  serializedVersion: 6
  m_Component:
  - component: {fileID: 243380307826394410}
  - component: {fileID: 2838454496381174400}
  m_Layer: 0
  m_Name: block
  m_TagString: Untagged
  m_Icon: {fileID: 0}
  m_NavMeshLayer: 0
  m_StaticEditorFlags: 0
  m_IsActive: 1
--- !u!4 &243380307826394410
Transform:
  m_ObjectHideFlags: 0
  m_CorrespondingSourceObject: {fileID: 0}
  m_PrefabInstance: {fileID: 0}
  m_PrefabAsset: {fileID: 0}
  m_GameObject: {fileID: 6733622293782767173}
  m_LocalRotation: {x: 0, y: 0, z: 0, w: 1}
  m_LocalPosition: {x: 0, y: 0, z: 0}
  m_LocalScale: {x: 1, y: 1, z: 1}
  m_Children:
  - {fileID: 8668476749622896331}
  - {fileID: 4485197226968619917}
  - {fileID: 1677471202974655620}
  - {fileID: 7079128069814442610}
  m_Father: {fileID: 0}
  m_RootOrder: 0
  m_LocalEulerAnglesHint: {x: 0, y: 0, z: 0}
--- !u!61 &2838454496381174400
BoxCollider2D:
  m_ObjectHideFlags: 0
  m_CorrespondingSourceObject: {fileID: 0}
  m_PrefabInstance: {fileID: 0}
  m_PrefabAsset: {fileID: 0}
  m_GameObject: {fileID: 6733622293782767173}
  m_Enabled: 1
  m_Density: 1
  m_Material: {fileID: 0}
  m_IsTrigger: 0
  m_UsedByEffector: 0
  m_UsedByComposite: 0
  m_Offset: {x: 0.5, y: 0.4}
  m_SpriteTilingProperty:
    border: {x: 0, y: 0, z: 0, w: 0}
    pivot: {x: 0, y: 0}
    oldSize: {x: 0, y: 0}
    newSize: {x: 0, y: 0}
    adaptiveTilingThreshold: 0
    drawMode: 0
    adaptiveTiling: 0
  m_AutoTiling: 0
  serializedVersion: 2
  m_Size: {x: 2, y: 1.6}
  m_EdgeRadius: 0
--- !u!1001 &433089956860389063
PrefabInstance:
  m_ObjectHideFlags: 0
  serializedVersion: 2
  m_Modification:
    m_TransformParent: {fileID: 243380307826394410}
    m_Modifications:
    - target: {fileID: 4052177640276884810, guid: d3cebda7a05f7af42bdcc5bc91c521fd,
        type: 3}
      propertyPath: m_RootOrder
      value: 1
      objectReference: {fileID: 0}
    - target: {fileID: 4052177640276884810, guid: d3cebda7a05f7af42bdcc5bc91c521fd,
        type: 3}
      propertyPath: m_LocalPosition.x
      value: 1
      objectReference: {fileID: 0}
    - target: {fileID: 4052177640276884810, guid: d3cebda7a05f7af42bdcc5bc91c521fd,
        type: 3}
      propertyPath: m_LocalPosition.y
      value: 0
      objectReference: {fileID: 0}
    - target: {fileID: 4052177640276884810, guid: d3cebda7a05f7af42bdcc5bc91c521fd,
        type: 3}
      propertyPath: m_LocalPosition.z
      value: 0
      objectReference: {fileID: 0}
    - target: {fileID: 4052177640276884810, guid: d3cebda7a05f7af42bdcc5bc91c521fd,
        type: 3}
      propertyPath: m_LocalRotation.w
      value: 1
      objectReference: {fileID: 0}
    - target: {fileID: 4052177640276884810, guid: d3cebda7a05f7af42bdcc5bc91c521fd,
        type: 3}
      propertyPath: m_LocalRotation.x
      value: -0
      objectReference: {fileID: 0}
    - target: {fileID: 4052177640276884810, guid: d3cebda7a05f7af42bdcc5bc91c521fd,
        type: 3}
      propertyPath: m_LocalRotation.y
      value: -0
      objectReference: {fileID: 0}
    - target: {fileID: 4052177640276884810, guid: d3cebda7a05f7af42bdcc5bc91c521fd,
        type: 3}
      propertyPath: m_LocalRotation.z
      value: -0
      objectReference: {fileID: 0}
    - target: {fileID: 4052177640276884810, guid: d3cebda7a05f7af42bdcc5bc91c521fd,
        type: 3}
      propertyPath: m_LocalEulerAnglesHint.x
      value: 0
      objectReference: {fileID: 0}
    - target: {fileID: 4052177640276884810, guid: d3cebda7a05f7af42bdcc5bc91c521fd,
        type: 3}
      propertyPath: m_LocalEulerAnglesHint.y
      value: 0
      objectReference: {fileID: 0}
    - target: {fileID: 4052177640276884810, guid: d3cebda7a05f7af42bdcc5bc91c521fd,
        type: 3}
      propertyPath: m_LocalEulerAnglesHint.z
      value: 0
      objectReference: {fileID: 0}
    - target: {fileID: 5570165510528702001, guid: d3cebda7a05f7af42bdcc5bc91c521fd,
        type: 3}
      propertyPath: m_Name
      value: wall
      objectReference: {fileID: 0}
    m_RemovedComponents: []
  m_SourcePrefab: {fileID: 100100000, guid: d3cebda7a05f7af42bdcc5bc91c521fd, type: 3}
--- !u!4 &4485197226968619917 stripped
Transform:
  m_CorrespondingSourceObject: {fileID: 4052177640276884810, guid: d3cebda7a05f7af42bdcc5bc91c521fd,
    type: 3}
  m_PrefabInstance: {fileID: 433089956860389063}
  m_PrefabAsset: {fileID: 0}
--- !u!1001 &3421514381802576334
PrefabInstance:
  m_ObjectHideFlags: 0
  serializedVersion: 2
  m_Modification:
    m_TransformParent: {fileID: 243380307826394410}
    m_Modifications:
    - target: {fileID: 4052177640276884810, guid: d3cebda7a05f7af42bdcc5bc91c521fd,
        type: 3}
      propertyPath: m_RootOrder
      value: 2
      objectReference: {fileID: 0}
    - target: {fileID: 4052177640276884810, guid: d3cebda7a05f7af42bdcc5bc91c521fd,
        type: 3}
      propertyPath: m_LocalPosition.x
      value: 0
      objectReference: {fileID: 0}
    - target: {fileID: 4052177640276884810, guid: d3cebda7a05f7af42bdcc5bc91c521fd,
        type: 3}
      propertyPath: m_LocalPosition.y
      value: 0.8
      objectReference: {fileID: 0}
    - target: {fileID: 4052177640276884810, guid: d3cebda7a05f7af42bdcc5bc91c521fd,
        type: 3}
      propertyPath: m_LocalPosition.z
      value: 0
      objectReference: {fileID: 0}
    - target: {fileID: 4052177640276884810, guid: d3cebda7a05f7af42bdcc5bc91c521fd,
        type: 3}
      propertyPath: m_LocalRotation.w
      value: 1
      objectReference: {fileID: 0}
    - target: {fileID: 4052177640276884810, guid: d3cebda7a05f7af42bdcc5bc91c521fd,
        type: 3}
      propertyPath: m_LocalRotation.x
      value: -0
      objectReference: {fileID: 0}
    - target: {fileID: 4052177640276884810, guid: d3cebda7a05f7af42bdcc5bc91c521fd,
        type: 3}
      propertyPath: m_LocalRotation.y
      value: -0
      objectReference: {fileID: 0}
    - target: {fileID: 4052177640276884810, guid: d3cebda7a05f7af42bdcc5bc91c521fd,
        type: 3}
      propertyPath: m_LocalRotation.z
      value: -0
      objectReference: {fileID: 0}
    - target: {fileID: 4052177640276884810, guid: d3cebda7a05f7af42bdcc5bc91c521fd,
        type: 3}
      propertyPath: m_LocalEulerAnglesHint.x
      value: 0
      objectReference: {fileID: 0}
    - target: {fileID: 4052177640276884810, guid: d3cebda7a05f7af42bdcc5bc91c521fd,
        type: 3}
      propertyPath: m_LocalEulerAnglesHint.y
      value: 0
      objectReference: {fileID: 0}
    - target: {fileID: 4052177640276884810, guid: d3cebda7a05f7af42bdcc5bc91c521fd,
        type: 3}
      propertyPath: m_LocalEulerAnglesHint.z
      value: 0
      objectReference: {fileID: 0}
    - target: {fileID: 5570165510528702001, guid: d3cebda7a05f7af42bdcc5bc91c521fd,
        type: 3}
      propertyPath: m_Name
      value: wall
      objectReference: {fileID: 0}
    m_RemovedComponents: []
  m_SourcePrefab: {fileID: 100100000, guid: d3cebda7a05f7af42bdcc5bc91c521fd, type: 3}
--- !u!4 &1677471202974655620 stripped
Transform:
  m_CorrespondingSourceObject: {fileID: 4052177640276884810, guid: d3cebda7a05f7af42bdcc5bc91c521fd,
    type: 3}
  m_PrefabInstance: {fileID: 3421514381802576334}
  m_PrefabAsset: {fileID: 0}
--- !u!1001 &4643395612496796545
PrefabInstance:
  m_ObjectHideFlags: 0
  serializedVersion: 2
  m_Modification:
    m_TransformParent: {fileID: 243380307826394410}
    m_Modifications:
    - target: {fileID: 4052177640276884810, guid: d3cebda7a05f7af42bdcc5bc91c521fd,
        type: 3}
      propertyPath: m_RootOrder
      value: 0
      objectReference: {fileID: 0}
    - target: {fileID: 4052177640276884810, guid: d3cebda7a05f7af42bdcc5bc91c521fd,
        type: 3}
      propertyPath: m_LocalPosition.x
      value: 0
      objectReference: {fileID: 0}
    - target: {fileID: 4052177640276884810, guid: d3cebda7a05f7af42bdcc5bc91c521fd,
        type: 3}
      propertyPath: m_LocalPosition.y
      value: 0
      objectReference: {fileID: 0}
    - target: {fileID: 4052177640276884810, guid: d3cebda7a05f7af42bdcc5bc91c521fd,
        type: 3}
      propertyPath: m_LocalPosition.z
      value: 0
      objectReference: {fileID: 0}
    - target: {fileID: 4052177640276884810, guid: d3cebda7a05f7af42bdcc5bc91c521fd,
        type: 3}
      propertyPath: m_LocalRotation.w
      value: 1
      objectReference: {fileID: 0}
    - target: {fileID: 4052177640276884810, guid: d3cebda7a05f7af42bdcc5bc91c521fd,
        type: 3}
      propertyPath: m_LocalRotation.x
      value: -0
      objectReference: {fileID: 0}
    - target: {fileID: 4052177640276884810, guid: d3cebda7a05f7af42bdcc5bc91c521fd,
        type: 3}
      propertyPath: m_LocalRotation.y
      value: -0
      objectReference: {fileID: 0}
    - target: {fileID: 4052177640276884810, guid: d3cebda7a05f7af42bdcc5bc91c521fd,
        type: 3}
      propertyPath: m_LocalRotation.z
      value: -0
      objectReference: {fileID: 0}
    - target: {fileID: 4052177640276884810, guid: d3cebda7a05f7af42bdcc5bc91c521fd,
        type: 3}
      propertyPath: m_LocalEulerAnglesHint.x
      value: 0
      objectReference: {fileID: 0}
    - target: {fileID: 4052177640276884810, guid: d3cebda7a05f7af42bdcc5bc91c521fd,
        type: 3}
      propertyPath: m_LocalEulerAnglesHint.y
      value: 0
      objectReference: {fileID: 0}
    - target: {fileID: 4052177640276884810, guid: d3cebda7a05f7af42bdcc5bc91c521fd,
        type: 3}
      propertyPath: m_LocalEulerAnglesHint.z
      value: 0
      objectReference: {fileID: 0}
    - target: {fileID: 5570165510528702001, guid: d3cebda7a05f7af42bdcc5bc91c521fd,
        type: 3}
      propertyPath: m_Name
      value: wall
      objectReference: {fileID: 0}
    m_RemovedComponents: []
  m_SourcePrefab: {fileID: 100100000, guid: d3cebda7a05f7af42bdcc5bc91c521fd, type: 3}
--- !u!4 &8668476749622896331 stripped
Transform:
  m_CorrespondingSourceObject: {fileID: 4052177640276884810, guid: d3cebda7a05f7af42bdcc5bc91c521fd,
    type: 3}
  m_PrefabInstance: {fileID: 4643395612496796545}
  m_PrefabAsset: {fileID: 0}
--- !u!1001 &6485789711732483896
PrefabInstance:
  m_ObjectHideFlags: 0
  serializedVersion: 2
  m_Modification:
    m_TransformParent: {fileID: 243380307826394410}
    m_Modifications:
    - target: {fileID: 4052177640276884810, guid: d3cebda7a05f7af42bdcc5bc91c521fd,
        type: 3}
      propertyPath: m_RootOrder
      value: 3
      objectReference: {fileID: 0}
    - target: {fileID: 4052177640276884810, guid: d3cebda7a05f7af42bdcc5bc91c521fd,
        type: 3}
      propertyPath: m_LocalPosition.x
      value: 1
      objectReference: {fileID: 0}
    - target: {fileID: 4052177640276884810, guid: d3cebda7a05f7af42bdcc5bc91c521fd,
        type: 3}
      propertyPath: m_LocalPosition.y
      value: 0.8
      objectReference: {fileID: 0}
    - target: {fileID: 4052177640276884810, guid: d3cebda7a05f7af42bdcc5bc91c521fd,
        type: 3}
      propertyPath: m_LocalPosition.z
      value: 0
      objectReference: {fileID: 0}
    - target: {fileID: 4052177640276884810, guid: d3cebda7a05f7af42bdcc5bc91c521fd,
        type: 3}
      propertyPath: m_LocalRotation.w
      value: 1
      objectReference: {fileID: 0}
    - target: {fileID: 4052177640276884810, guid: d3cebda7a05f7af42bdcc5bc91c521fd,
        type: 3}
      propertyPath: m_LocalRotation.x
      value: -0
      objectReference: {fileID: 0}
    - target: {fileID: 4052177640276884810, guid: d3cebda7a05f7af42bdcc5bc91c521fd,
        type: 3}
      propertyPath: m_LocalRotation.y
      value: -0
      objectReference: {fileID: 0}
    - target: {fileID: 4052177640276884810, guid: d3cebda7a05f7af42bdcc5bc91c521fd,
        type: 3}
      propertyPath: m_LocalRotation.z
      value: -0
      objectReference: {fileID: 0}
    - target: {fileID: 4052177640276884810, guid: d3cebda7a05f7af42bdcc5bc91c521fd,
        type: 3}
      propertyPath: m_LocalEulerAnglesHint.x
      value: 0
      objectReference: {fileID: 0}
    - target: {fileID: 4052177640276884810, guid: d3cebda7a05f7af42bdcc5bc91c521fd,
        type: 3}
      propertyPath: m_LocalEulerAnglesHint.y
      value: 0
      objectReference: {fileID: 0}
    - target: {fileID: 4052177640276884810, guid: d3cebda7a05f7af42bdcc5bc91c521fd,
        type: 3}
      propertyPath: m_LocalEulerAnglesHint.z
      value: 0
      objectReference: {fileID: 0}
    - target: {fileID: 5570165510528702001, guid: d3cebda7a05f7af42bdcc5bc91c521fd,
        type: 3}
      propertyPath: m_Name
      value: wall
      objectReference: {fileID: 0}
    m_RemovedComponents: []
  m_SourcePrefab: {fileID: 100100000, guid: d3cebda7a05f7af42bdcc5bc91c521fd, type: 3}
--- !u!4 &7079128069814442610 stripped
Transform:
  m_CorrespondingSourceObject: {fileID: 4052177640276884810, guid: d3cebda7a05f7af42bdcc5bc91c521fd,
    type: 3}
  m_PrefabInstance: {fileID: 6485789711732483896}
  m_PrefabAsset: {fileID: 0}
