%YAML 1.1
%TAG !u! tag:unity3d.com,2011:
--- !u!1 &1756649881189595492
GameObject:
  m_ObjectHideFlags: 0
  m_CorrespondingSourceObject: {fileID: 0}
  m_PrefabInstance: {fileID: 0}
  m_PrefabAsset: {fileID: 0}
  serializedVersion: 6
  m_Component:
  - component: {fileID: 1756649881189595495}
  m_Layer: 0
  m_Name: SpikesVerticalUp
  m_TagString: Untagged
  m_Icon: {fileID: 0}
  m_NavMeshLayer: 0
  m_StaticEditorFlags: 0
  m_IsActive: 1
--- !u!4 &1756649881189595495
Transform:
  m_ObjectHideFlags: 0
  m_CorrespondingSourceObject: {fileID: 0}
  m_PrefabInstance: {fileID: 0}
  m_PrefabAsset: {fileID: 0}
  m_GameObject: {fileID: 1756649881189595492}
  m_LocalRotation: {x: 0, y: 0, z: 0, w: 1}
  m_LocalPosition: {x: 0, y: -4, z: 0}
  m_LocalScale: {x: 1, y: 1, z: 1}
  m_Children:
  - {fileID: 7791496991930943939}
  - {fileID: 1993057762986613170}
  m_Father: {fileID: 0}
  m_RootOrder: 0
  m_LocalEulerAnglesHint: {x: 0, y: 0, z: 0}
--- !u!1001 &1125911161
PrefabInstance:
  m_ObjectHideFlags: 0
  serializedVersion: 2
  m_Modification:
    m_TransformParent: {fileID: 1756649881189595495}
    m_Modifications:
    - target: {fileID: 54630751146089844, guid: dbc7a8f933d2b4842b705031f9a99031,
        type: 3}
      propertyPath: m_LocalPosition.y
      value: 0
      objectReference: {fileID: 0}
    - target: {fileID: 1993057761863848907, guid: dbc7a8f933d2b4842b705031f9a99031,
        type: 3}
      propertyPath: m_RootOrder
      value: 1
      objectReference: {fileID: 0}
    - target: {fileID: 1993057761863848907, guid: dbc7a8f933d2b4842b705031f9a99031,
        type: 3}
      propertyPath: m_LocalPosition.x
      value: 0.69
      objectReference: {fileID: 0}
    - target: {fileID: 1993057761863848907, guid: dbc7a8f933d2b4842b705031f9a99031,
        type: 3}
      propertyPath: m_LocalPosition.y
      value: 0
      objectReference: {fileID: 0}
    - target: {fileID: 1993057761863848907, guid: dbc7a8f933d2b4842b705031f9a99031,
        type: 3}
      propertyPath: m_LocalPosition.z
      value: 0
      objectReference: {fileID: 0}
    - target: {fileID: 1993057761863848907, guid: dbc7a8f933d2b4842b705031f9a99031,
        type: 3}
      propertyPath: m_LocalRotation.w
      value: 1
      objectReference: {fileID: 0}
    - target: {fileID: 1993057761863848907, guid: dbc7a8f933d2b4842b705031f9a99031,
        type: 3}
      propertyPath: m_LocalRotation.x
      value: 0
      objectReference: {fileID: 0}
    - target: {fileID: 1993057761863848907, guid: dbc7a8f933d2b4842b705031f9a99031,
        type: 3}
      propertyPath: m_LocalRotation.y
      value: 0
      objectReference: {fileID: 0}
    - target: {fileID: 1993057761863848907, guid: dbc7a8f933d2b4842b705031f9a99031,
        type: 3}
      propertyPath: m_LocalRotation.z
      value: 0
      objectReference: {fileID: 0}
    - target: {fileID: 1993057761863848907, guid: dbc7a8f933d2b4842b705031f9a99031,
        type: 3}
      propertyPath: m_LocalEulerAnglesHint.x
      value: 0
      objectReference: {fileID: 0}
    - target: {fileID: 1993057761863848907, guid: dbc7a8f933d2b4842b705031f9a99031,
        type: 3}
      propertyPath: m_LocalEulerAnglesHint.y
      value: 0
      objectReference: {fileID: 0}
    - target: {fileID: 1993057761863848907, guid: dbc7a8f933d2b4842b705031f9a99031,
        type: 3}
      propertyPath: m_LocalEulerAnglesHint.z
      value: 0
      objectReference: {fileID: 0}
    - target: {fileID: 4608134597506091710, guid: dbc7a8f933d2b4842b705031f9a99031,
        type: 3}
      propertyPath: m_LocalPosition.y
      value: 0
      objectReference: {fileID: 0}
    - target: {fileID: 4678406407631758449, guid: dbc7a8f933d2b4842b705031f9a99031,
        type: 3}
      propertyPath: m_Name
      value: spikeset
      objectReference: {fileID: 0}
    - target: {fileID: 5106492922700034516, guid: dbc7a8f933d2b4842b705031f9a99031,
        type: 3}
      propertyPath: m_FlipY
      value: 0
      objectReference: {fileID: 0}
    - target: {fileID: 5106492922700034516, guid: dbc7a8f933d2b4842b705031f9a99031,
        type: 3}
      propertyPath: m_Color.b
      value: 1
      objectReference: {fileID: 0}
    - target: {fileID: 5106492922700034516, guid: dbc7a8f933d2b4842b705031f9a99031,
        type: 3}
      propertyPath: m_Color.g
      value: 0.9042138
      objectReference: {fileID: 0}
    - target: {fileID: 5106492922700034516, guid: dbc7a8f933d2b4842b705031f9a99031,
        type: 3}
      propertyPath: m_Color.r
      value: 0.75
      objectReference: {fileID: 0}
    - target: {fileID: 5334665912651981878, guid: dbc7a8f933d2b4842b705031f9a99031,
        type: 3}
      propertyPath: m_FlipY
      value: 0
      objectReference: {fileID: 0}
    - target: {fileID: 5334665912651981878, guid: dbc7a8f933d2b4842b705031f9a99031,
        type: 3}
      propertyPath: m_Color.b
      value: 1
      objectReference: {fileID: 0}
    - target: {fileID: 5334665912651981878, guid: dbc7a8f933d2b4842b705031f9a99031,
        type: 3}
      propertyPath: m_Color.g
      value: 0.9042138
      objectReference: {fileID: 0}
    - target: {fileID: 5334665912651981878, guid: dbc7a8f933d2b4842b705031f9a99031,
        type: 3}
      propertyPath: m_Color.r
      value: 0.75
      objectReference: {fileID: 0}
    - target: {fileID: 5698164264128420280, guid: dbc7a8f933d2b4842b705031f9a99031,
        type: 3}
      propertyPath: m_FlipY
      value: 0
      objectReference: {fileID: 0}
    - target: {fileID: 5698164264128420280, guid: dbc7a8f933d2b4842b705031f9a99031,
        type: 3}
      propertyPath: m_Color.b
      value: 1
      objectReference: {fileID: 0}
    - target: {fileID: 5698164264128420280, guid: dbc7a8f933d2b4842b705031f9a99031,
        type: 3}
      propertyPath: m_Color.g
      value: 0.9042138
      objectReference: {fileID: 0}
    - target: {fileID: 5698164264128420280, guid: dbc7a8f933d2b4842b705031f9a99031,
        type: 3}
      propertyPath: m_Color.r
      value: 0.75
      objectReference: {fileID: 0}
    - target: {fileID: 5835347113402060586, guid: dbc7a8f933d2b4842b705031f9a99031,
        type: 3}
      propertyPath: m_LocalPosition.y
      value: 0
      objectReference: {fileID: 0}
    - target: {fileID: 7546793772904269128, guid: dbc7a8f933d2b4842b705031f9a99031,
        type: 3}
      propertyPath: m_FlipY
      value: 0
      objectReference: {fileID: 0}
    - target: {fileID: 7546793772904269128, guid: dbc7a8f933d2b4842b705031f9a99031,
        type: 3}
      propertyPath: m_Color.b
      value: 1
      objectReference: {fileID: 0}
    - target: {fileID: 7546793772904269128, guid: dbc7a8f933d2b4842b705031f9a99031,
        type: 3}
      propertyPath: m_Color.g
      value: 0.9042138
      objectReference: {fileID: 0}
    - target: {fileID: 7546793772904269128, guid: dbc7a8f933d2b4842b705031f9a99031,
        type: 3}
      propertyPath: m_Color.r
      value: 0.75
      objectReference: {fileID: 0}
    - target: {fileID: 7546793772904269130, guid: dbc7a8f933d2b4842b705031f9a99031,
        type: 3}
      propertyPath: m_LocalPosition.y
      value: 0
      objectReference: {fileID: 0}
    m_RemovedComponents: []
  m_SourcePrefab: {fileID: 100100000, guid: dbc7a8f933d2b4842b705031f9a99031, type: 3}
--- !u!4 &1993057762986613170 stripped
Transform:
  m_CorrespondingSourceObject: {fileID: 1993057761863848907, guid: dbc7a8f933d2b4842b705031f9a99031,
    type: 3}
  m_PrefabInstance: {fileID: 1125911161}
  m_PrefabAsset: {fileID: 0}
--- !u!1001 &8613193944981527048
PrefabInstance:
  m_ObjectHideFlags: 0
  serializedVersion: 2
  m_Modification:
    m_TransformParent: {fileID: 1756649881189595495}
    m_Modifications:
    - target: {fileID: 54630751146089844, guid: dbc7a8f933d2b4842b705031f9a99031,
        type: 3}
      propertyPath: m_LocalPosition.y
      value: 0
      objectReference: {fileID: 0}
    - target: {fileID: 1993057761863848907, guid: dbc7a8f933d2b4842b705031f9a99031,
        type: 3}
      propertyPath: m_RootOrder
      value: 0
      objectReference: {fileID: 0}
    - target: {fileID: 1993057761863848907, guid: dbc7a8f933d2b4842b705031f9a99031,
        type: 3}
      propertyPath: m_LocalPosition.x
      value: 0
      objectReference: {fileID: 0}
    - target: {fileID: 1993057761863848907, guid: dbc7a8f933d2b4842b705031f9a99031,
        type: 3}
      propertyPath: m_LocalPosition.y
      value: 0
      objectReference: {fileID: 0}
    - target: {fileID: 1993057761863848907, guid: dbc7a8f933d2b4842b705031f9a99031,
        type: 3}
      propertyPath: m_LocalPosition.z
      value: 0
      objectReference: {fileID: 0}
    - target: {fileID: 1993057761863848907, guid: dbc7a8f933d2b4842b705031f9a99031,
        type: 3}
      propertyPath: m_LocalRotation.w
      value: 1
      objectReference: {fileID: 0}
    - target: {fileID: 1993057761863848907, guid: dbc7a8f933d2b4842b705031f9a99031,
        type: 3}
      propertyPath: m_LocalRotation.x
      value: 0
      objectReference: {fileID: 0}
    - target: {fileID: 1993057761863848907, guid: dbc7a8f933d2b4842b705031f9a99031,
        type: 3}
      propertyPath: m_LocalRotation.y
      value: 0
      objectReference: {fileID: 0}
    - target: {fileID: 1993057761863848907, guid: dbc7a8f933d2b4842b705031f9a99031,
        type: 3}
      propertyPath: m_LocalRotation.z
      value: 0
      objectReference: {fileID: 0}
    - target: {fileID: 1993057761863848907, guid: dbc7a8f933d2b4842b705031f9a99031,
        type: 3}
      propertyPath: m_LocalEulerAnglesHint.x
      value: 0
      objectReference: {fileID: 0}
    - target: {fileID: 1993057761863848907, guid: dbc7a8f933d2b4842b705031f9a99031,
        type: 3}
      propertyPath: m_LocalEulerAnglesHint.y
      value: 0
      objectReference: {fileID: 0}
    - target: {fileID: 1993057761863848907, guid: dbc7a8f933d2b4842b705031f9a99031,
        type: 3}
      propertyPath: m_LocalEulerAnglesHint.z
      value: 0
      objectReference: {fileID: 0}
    - target: {fileID: 4608134597506091710, guid: dbc7a8f933d2b4842b705031f9a99031,
        type: 3}
      propertyPath: m_LocalPosition.y
      value: 0
      objectReference: {fileID: 0}
    - target: {fileID: 4678406407631758449, guid: dbc7a8f933d2b4842b705031f9a99031,
        type: 3}
      propertyPath: m_Name
      value: spikeset
      objectReference: {fileID: 0}
    - target: {fileID: 5106492922700034516, guid: dbc7a8f933d2b4842b705031f9a99031,
        type: 3}
      propertyPath: m_FlipY
      value: 0
      objectReference: {fileID: 0}
    - target: {fileID: 5106492922700034516, guid: dbc7a8f933d2b4842b705031f9a99031,
        type: 3}
      propertyPath: m_Color.b
      value: 1
      objectReference: {fileID: 0}
    - target: {fileID: 5106492922700034516, guid: dbc7a8f933d2b4842b705031f9a99031,
        type: 3}
      propertyPath: m_Color.g
      value: 0.9042138
      objectReference: {fileID: 0}
    - target: {fileID: 5106492922700034516, guid: dbc7a8f933d2b4842b705031f9a99031,
        type: 3}
      propertyPath: m_Color.r
      value: 0.75
      objectReference: {fileID: 0}
    - target: {fileID: 5334665912651981878, guid: dbc7a8f933d2b4842b705031f9a99031,
        type: 3}
      propertyPath: m_FlipY
      value: 0
      objectReference: {fileID: 0}
    - target: {fileID: 5334665912651981878, guid: dbc7a8f933d2b4842b705031f9a99031,
        type: 3}
      propertyPath: m_Color.b
      value: 1
      objectReference: {fileID: 0}
    - target: {fileID: 5334665912651981878, guid: dbc7a8f933d2b4842b705031f9a99031,
        type: 3}
      propertyPath: m_Color.g
      value: 0.9042138
      objectReference: {fileID: 0}
    - target: {fileID: 5334665912651981878, guid: dbc7a8f933d2b4842b705031f9a99031,
        type: 3}
      propertyPath: m_Color.r
      value: 0.75
      objectReference: {fileID: 0}
    - target: {fileID: 5698164264128420280, guid: dbc7a8f933d2b4842b705031f9a99031,
        type: 3}
      propertyPath: m_FlipY
      value: 0
      objectReference: {fileID: 0}
    - target: {fileID: 5698164264128420280, guid: dbc7a8f933d2b4842b705031f9a99031,
        type: 3}
      propertyPath: m_Color.b
      value: 1
      objectReference: {fileID: 0}
    - target: {fileID: 5698164264128420280, guid: dbc7a8f933d2b4842b705031f9a99031,
        type: 3}
      propertyPath: m_Color.g
      value: 0.9042138
      objectReference: {fileID: 0}
    - target: {fileID: 5698164264128420280, guid: dbc7a8f933d2b4842b705031f9a99031,
        type: 3}
      propertyPath: m_Color.r
      value: 0.75
      objectReference: {fileID: 0}
    - target: {fileID: 5835347113402060586, guid: dbc7a8f933d2b4842b705031f9a99031,
        type: 3}
      propertyPath: m_LocalPosition.y
      value: 0
      objectReference: {fileID: 0}
    - target: {fileID: 7546793772904269128, guid: dbc7a8f933d2b4842b705031f9a99031,
        type: 3}
      propertyPath: m_FlipY
      value: 0
      objectReference: {fileID: 0}
    - target: {fileID: 7546793772904269128, guid: dbc7a8f933d2b4842b705031f9a99031,
        type: 3}
      propertyPath: m_Color.b
      value: 1
      objectReference: {fileID: 0}
    - target: {fileID: 7546793772904269128, guid: dbc7a8f933d2b4842b705031f9a99031,
        type: 3}
      propertyPath: m_Color.g
      value: 0.9042138
      objectReference: {fileID: 0}
    - target: {fileID: 7546793772904269128, guid: dbc7a8f933d2b4842b705031f9a99031,
        type: 3}
      propertyPath: m_Color.r
      value: 0.75
      objectReference: {fileID: 0}
    - target: {fileID: 7546793772904269130, guid: dbc7a8f933d2b4842b705031f9a99031,
        type: 3}
      propertyPath: m_LocalPosition.y
      value: 0
      objectReference: {fileID: 0}
    m_RemovedComponents: []
  m_SourcePrefab: {fileID: 100100000, guid: dbc7a8f933d2b4842b705031f9a99031, type: 3}
--- !u!4 &7791496991930943939 stripped
Transform:
  m_CorrespondingSourceObject: {fileID: 1993057761863848907, guid: dbc7a8f933d2b4842b705031f9a99031,
    type: 3}
  m_PrefabInstance: {fileID: 8613193944981527048}
  m_PrefabAsset: {fileID: 0}
